{
  "cviceni": {
    "version": {
      "global": "<%= version %>",
      "content": 2
    },
    "katalog": [
      "public"
    ],
    "language": "cs",
    "slug": "kam-zmizeli-cesti-nemci",
    "nazev": "Kam zmizeli čeští Němci?",
    "autor": [
      "Tereza Vávrová"
    ],
    "klicovaSlova": {
      "rvp": [
        "důsledky druhé světové války"
      ],
      "koncept": [
        "migrace"
      ],
      "b4": [
        "příčiny a důsledky"
      ],
      "historylab": [
        "sestavujeme podloženou odpověď"
      ]
    },
    "casovaOsa": {
      "roky": [
        1945
      ],
      "epochy": [
        {
          "refId": "czech",
          "obdobi": [
            "poválečná doba a nástup komunismu"
          ]
        },
        {
          "refId": "world",
          "obdobi": []
        }
      ]
    },
    "anotace": {
      "ucitel": "Cvičení zkoumá příčiny a důsledky historických událostí na příkladu vysídlení českých Němců. Žáci analyzují část projevu prezidenta Edvarda Beneše (červen 1945) a úryvek Zákona o udělení občanství Němcům (1953) a následně pátrají po osudu německé menšiny v českých zemích po roce 1945. Na základě textů a dalších dobových dokumentů postupně odkrývají proměny obrazu Němce v české společnosti. Cvičení lze spojit s výkladem důsledků druhé světové války a souvisejících proměn české společnosti.",
      "verejna": "Z poválečných 200 000 Němců se v současné době v ČR k německé národnosti hlásí asi 18 500 lidí. Kam zmizeli čeští Němci? Odpověď možná najdete pomocí projevu prezidenta Edvarda Beneše (z června 1945) a úryvku Zákona o udělení občanství Němcům (1953)."
    },
    "trvani": 40,
    "obtiznost": "vysoká",
    "funkce": [
      "lupa",
      "cteni",
      "text",
      "text-editor"
    ],
    "pdf": {
      "doporucenyPostup": "kam-zmizeli-cesti-nemci.pdf"
    },
    "uvodniObrazek": "kam-zmizeli-cesti-nemci/pic-02-1280w.jpg",
    "id": 11,
    "color": {
      "rgb": {
        "r": 221,
        "g": 221,
        "b": 223
      },
      "hsv": {
        "h": 240,
        "s": 0.9,
        "v": 87.45
      }
    }
  },
  "slajd": [
    {
      "zadani": {
        "hlavni": "Přečtěte si text.",
        "rozsirujici": ""
      },
      "napoveda": {
        "aktivity": [
          "lupa",
          "cteni"
        ],
        "text": ""
      },
      "textovyEditor": {
        "galerie": [
          {
            "soubor": "kam-zmizeli-cesti-nemci/pic-00-1024h.jpg"
          },
          {
            "soubor": "kam-zmizeli-cesti-nemci/pic-01-1280w.jpg"
          }
        ],
        "layout": "velka-galerie",
        "texty": [
          {
            "id": 1,
            "text": "text-00",
            "funkce": "cteni"
          }
        ]
      },
      "popisky": [
        "Zdroj: Svobodné slovo, 17. června 1945"
      ]
    },
    {
      "class": [
        "half-slide-previous"
      ],
      "zadani": {
        "hlavni": "Označte v textu tři činnosti, k nimiž prezident dr. Beneš vyzývá Čechy.",
        "rozsirujici": ""
      },
      "napoveda": {
        "aktivity": [
          "text-editor"
        ],
        "text": "Levým tlačítkem myši zabarvíte zvolené slovo nebo slovní spojení. Otevře se vám nabídka, v níž zvolíte označovanou kategorii. Křížkem lze označení smazat, kliknutím levým tlačítkem na již označené slovo lze přidat textový komentář."
      },
      "textovyEditor": {
        "texty": [
          {
            "id": 2,
            "text": "text-00",
            "funkce": "zvyraznovani",
            "menu": [
              {
                "title": "Činnost",
                "commandName": "cesi",
                "color": "orange"
              }
            ]
          }
        ]
      },
      "popisky": [
        "Zdroj: Svobodné slovo, 17. června 1945"
      ]
    },
    {
      "class": [
        "half-slide-active"
      ],
      "zadani": {
        "hlavni": "Odpovězte na otázky.",
        "rozsirujici": ""
      },
      "napoveda": {
        "aktivity": [
          "text"
        ],
        "text": ""
      },
      "uzivatelskyText": {
        "otazky": [
          {
            "id": "otazka-1",
            "zadani": "O kom dr. Beneš mluví?",
            "instrukce": "Myslím si, že…",
            "minDelka": 10,
            "maxDelka": 400,
            "vyska": 2
          },
          {
            "id": "otazka-2",
            "zadani": "K čemu mohla vést prezidentova výzva &bdquo;odgermanisovat&rdquo; republiku?",
            "instrukce": "Myslím si, že…",
            "minDelka": 10,
            "maxDelka": 400,
            "vyska": 2
          }
        ]
      }
    },
    {
      "class": [
        "half-slide-previous"
      ],
      "zadani": {
        "hlavni": "Prozkoumejte další prameny a odpovězte na otázku.",
        "rozsirujici": ""
      },
      "napoveda": {
        "aktivity": [
          "lupa",
          "text"
        ],
        "text": ""
      },
      "uzivatelskyText": {
        "layout": "velka-galerie",
        "galerie": [
          {
            "soubor": "kam-zmizeli-cesti-nemci/pic-02-1280w.jpg",
            "popisek": "Omezení nákupní doby pro Němce. Zdroj: SOkA Jeseník"
          },
          {
            "soubor": "kam-zmizeli-cesti-nemci/pic-03-1280w.jpg",
            "popisek": "Memorandum Umožnění asimilace neslovanským občanům – věrným přátelům českého národa a lidově-dem. republiky, 6. prosince 1946. Zdroj: NA Praha"
          },
          {
            "soubor": "kam-zmizeli-cesti-nemci/pic-04-1280w.jpg",
            "popisek": "Zdroj: Náš hraničář, 23. srpna 1946"
          },
          {
            "soubor": "kam-zmizeli-cesti-nemci/pic-05-1280w.jpg",
            "popisek": "Propagandistický plakát vyzývající k osidlování pohraničí. Zdroj: Archiv Muzea Karlovy Vary"
          }
        ],
        "otazky": [
          {
            "id": "otazka-3",
            "zadani": "Jak se žilo českým Němcům v poválečné době?",
            "instrukce": "Myslím si, že…",
            "minDelka": 2,
            "maxDelka": 400
          }
        ]
      }
    },
    {
      "class": "",
      "zadani": {
        "hlavni": "Přečtěte si text. Označte pasáže, které dokumentují změnu postoje k Němcům osm let po válce.",
        "rozsirujici": ""
      },
      "napoveda": {
        "aktivity": [
          "text-editor"
        ],
        "text": "Levým tlačítkem myši zabarvíte zvolené slovo nebo slovní spojení. Otevře se vám nabídka, v níž zvolíte označovanou kategorii. Křížkem lze označení smazat, kliknutím levým tlačítkem na již označené slovo lze přidat textový komentář."
      },
      "textovyEditor": {
        "texty": [
          {
            "id": 3,
            "text": "text-01",
            "funkce": "zvyraznovani",
            "menu": [
              {
                "title": "Označit změnu postoje",
                "commandName": "dulezite-pasaze",
                "color": "blue"
              }
            ]
          }
        ]
      },
      "popisky": [
        "Zdroj: Zákon o udělení čs. občanství, 34/1953 Sb."
      ]
    },
    {
      "class": "",
      "zadani": {
        "hlavni": "Odpovězte na otázky.",
        "rozsirujici": ""
      },
      "napoveda": {
        "aktivity": [
          "text"
        ],
        "text": "Do boxu pro text zapisujete odpověď na otázku, nebo jiný komentář (dle zadání)."
      },
      "uzivatelskyText": {
        "otazky": [
          {
            "id": "otazka-4",
            "zadani": "Jak se proměnil vztah k českým Němcům mezi lety 1945 až 1953?",
            "instrukce": "Myslím si, že…",
            "minDelka": 10,
            "maxDelka": 400
          },
          {
            "id": "otazka-5",
            "zadani": "Pokuste se vysvětlit, co se stalo s Němci, kteří v roce 1953 získali československé občanství. Bylo jich necelých 150 000. Nyní se v ČR k německé národnosti hlásí necelých 20 000 lidí. Kam zmizeli čeští Němci?",
            "instrukce": "Myslím si, že…",
            "minDelka": 10,
            "maxDelka": 400
          }
        ]
      }
    }
  ]
}