{
  "cviceni": {
    "version": {
      "global": "<%= version %>",
      "content": 3
    },
    "katalog": [
      "public",
      "test"
    ],
    "language": "cs",
    "slug": "mnichov-1938",
    "nazev": "Mnichov 1938",
    "autor": [
      "Martin Váňa",
      "Vojtěch Ripka"
    ],
    "klicovaSlova": {
      "rvp": [
        "politický vývoj ČSR",
        "národnostní problémy ČSR"
      ],
      "koncept": [],
      "b4": [
        "příčiny a důsledky"
      ],
      "historylab": [
        "tvoříme"
      ]
    },
    "casovaOsa": {
      "roky": [
        1938
      ],
      "epochy": [
        {
          "refId": "czech",
          "obdobi": [
            "druhá republika a tzv. protektorát"
          ]
        },
        {
          "refId": "world",
          "obdobi": []
        }
      ]
    },
    "anotace": {
      "ucitel": "Cvičení učí žáky pomocí map charakterizovat území Československa, která byla v roce 1938 odtržena podle mnichovské dohody. Žáci si vyzkouší práci s kartografickým pramenem ze 30. let, porovnávání historických map s demografickými a ekonomickými údaji a práci s textem mnichovské dohody. Cvičení může žáky přivést k hledání bezprostředních i hlubších příčin odtržení Sudet v roce 1938.",
      "verejna": "V roce 1938 byla od Československa odtržena část jeho území. Tento dramatický a často připomínaný krok má své příčiny. Prohlédněte si různé mapy a zkuste v nich vypátrat, proč bylo odstoupeno zrovna toto území."
    },
    "trvani": 25,
    "obtiznost": "střední",
    "funkce": [
      "lupa",
      "cteni",
      "text",
      "text-editor",
      "pretahovani"
    ],
    "pdf": {
      "doporucenyPostup": "mnichov-1938.pdf"
    },
    "uvodniObrazek": "mnichov-1938/mapy/pic-06-1280w.jpg",
    "id": 18,
    "color": {
      "rgb": {
        "r": 207,
        "g": 164,
        "b": 140
      },
      "hsv": {
        "h": 21,
        "s": 32.37,
        "v": 81.18
      }
    }
  },
  "slajd": [
    {
      "class": "half-slide-previous",
      "zadani": {
        "hlavni": "Prohlédněte si mapu vlevo a jednotlivé listy mapy vpravo.",
        "rozsirujici": ""
      },
      "napoveda": {
        "aktivity": [
          "lupa"
        ],
        "text": "Kliknutím levého tlačítka do obrazu a jeho podržením lupa přiblíží část obrazu ve výřezu. Tlačítka pod mapou přepínají jednotlivé mapové listy."
      },
      "slideNaPul": {
        "prameny": {
          "src": [
            "mnichov-1938/mapy/pic-06-1280w.jpg"
          ],
          "popisky": [
            "Politická mapa území odtržených podle mnichovské dohody v roce 1938. Zdroj: Freytag & Berndt"
          ]
        },
        "imitaceMapy": {
          "src": [
            "mnichov-1938/mapy/pic-00-1280w.jpg"
          ],
          "vrstvy": [
            {
              "nazev": "hustota obyvatel",
              "mapa": "mnichov-1938/mapy/pic-00-1280w.jpg"
            },
            {
              "nazev": "podíl pracujících v průmyslu",
              "mapa": "mnichov-1938/mapy/pic-04-1280w.jpg"
            },
            {
              "nazev": "podíl věřících",
              "mapa": "mnichov-1938/mapy/pic-05-1280w.jpg"
            },
            {
              "nazev": "podíl německého obyvatelstva",
              "mapa": "mnichov-1938/mapy/pic-01-1280w.jpg"
            },
            {
              "nazev": "podíl polského obyvatelstva",
              "mapa": "mnichov-1938/mapy/pic-03-1280w.jpg"
            },
            {
              "nazev": "československé opevnění",
              "mapa": "mnichov-1938/mapy/pic-02-1280w.jpg"
            }
          ],
          "popisky": [
            "Mapy obyvatelstva českých zemí Československé republiky v roce 1938 (podle sčítání obyvatelstva v roce 1930) a mapa československého opevnění. Zdroj: Martin Váňa (dle dat URRlab). Podklad: Open Street Map"
          ]
        }
      }
    },
    {
      "class": "half-slide-active",
      "zadani": {
        "hlavni": "Proč bylo území odtrženo od Československa?",
        "rozsirujici": " Pomocí zvětšování a zmenšování určete důležitost vlivů, které mohly hrát roli při vymezování odstoupeného území dle mnichovské dohody."
      },
      "napoveda": {
        "aktivity": [
          "word-cloud"
        ],
        "text": "Klikáním na znamenka -/+ zmenšujte či zdůrazňujte důležitost."
      },
      "klicovaSlova": {
        "klicovaSlova": [
          {
            "id": "klicova-slova-1",
            "funkce": "wordcloud",
            "tagy": [
              {
                "text": "hustota obyvatel"
              },
              {
                "text": "podíl pracujících v průmyslu"
              },
              {
                "text": "podíl věřících"
              },
              {
                "text": "podíl německého obyvatelstva"
              },
              {
                "text": "podíl polského obyvatelstva"
              },
              {
                "text": "československé opevnění"
              }
            ]
          }
        ]
      }
    },
    {
      "zadani": {
        "hlavni": "Přečtěte si text mnichovské dohody.",
        "rozsirujici": "Vyberte pasáže, jež odkazují k principu, který dohoda využila pro určení odtržených území."
      },
      "napoveda": {
        "aktivity": [
          "lupa",
          "text-editor"
        ],
        "text": "Levým tlačítkem myši zabarvíte zvolené slovo nebo slovní spojení. Otevře se vám nabídka, v níž zvolíte označovanou kategorii. Křížkem lze označení smazat."
      },
      "textovyEditor": {
        "galerie": [
          {
            "soubor": "mnichov-1938/dohoda/pic-00-1024h.jpg"
          },
          {
            "soubor": "mnichov-1938/dohoda/pic-01-1024h.jpg"
          },
          {
            "soubor": "mnichov-1938/dohoda/pic-02-1024h.jpg"
          },
          {
            "soubor": "mnichov-1938/dohoda/pic-03-1024h.jpg"
          },
          {
            "soubor": "mnichov-1938/dohoda/pic-04-1024h.jpg"
          }
        ],
        "texty": [
          {
            "id": 0,
            "text": "text-00",
            "funkce": "zvyraznovani",
            "menu": [
              {
                "title": "Označit",
                "commandName": "duleziteMnichovDohoda",
                "color": "red"
              }
            ]
          }
        ]
      },
      "popisky": [
        "Mnichovská dohoda mezi Německou říší, Spojeným královstvím Velké Británie a Severního Irska, Francií a Itálií o znovusjednocení sudetoněmeckých území s Německem z 29. září 1938. Zdroj: HÚ AV ČR"
      ]
    },
    {
      "class": [
        "half-slide-previous"
      ],
      "zadani": {
        "hlavni": "Přiřaďte jednotlivým mapám správné popisky.",
        "rozsirujici": ""
      },
      "napoveda": {
        "aktivity": [
          "razeni"
        ],
        "text": "Pomocí drag and drop přesouvejte položky z nabídky do obrázku."
      },
      "svg": {
        "pretahovani": {
          "id": "pretahovani-1",
          "wasDropped": false,
          "items": [
            {
              "objekt": "obsaženo v mnichovské dohodě",
              "medium": "tag"
            },
            {
              "objekt": "mohlo mít vliv na vymezení záboru",
              "medium": "tag"
            },
            {
              "objekt": "nemělo vliv na vymezení záboru",
              "medium": "tag"
            }
          ]
        },
        "soubory": [
          {
            "id": "svg-1",
            "soubor": "mnichov-1938/mapy/pic-00-1280w.jpg",
            "popisek": "Hustota obyvatel",
            "funkce": [],
            "drop": true
          },
          {
            "id": "svg-2",
            "soubor": "mnichov-1938/mapy/pic-04-1280w.jpg",
            "popisek": "Podíl pracujících v průmyslu",
            "funkce": [],
            "drop": true
          },
          {
            "id": "svg-3",
            "soubor": "mnichov-1938/mapy/pic-05-1280w.jpg",
            "popisek": "Podíl věřících",
            "funkce": [],
            "drop": true
          },
          {
            "id": "svg-4",
            "soubor": "mnichov-1938/mapy/pic-01-1280w.jpg",
            "popisek": "Podíl německého obyvatelstva",
            "funkce": [],
            "drop": true
          },
          {
            "id": "svg-5",
            "soubor": "mnichov-1938/mapy/pic-03-1280w.jpg",
            "popisek": "Podíl polského obyvatelstva",
            "funkce": [],
            "drop": true
          },
          {
            "id": "svg-6",
            "soubor": "mnichov-1938/mapy/pic-02-1280w.jpg",
            "popisek": "Československé opevnění",
            "funkce": [],
            "drop": true
          }
        ]
      }
    },
    {
      "class": [
        "half-slide-active"
      ],
      "zadani": {
        "hlavni": "Charakterizujte území, která byla v roce 1938 odtržena podle mnichovské dohody.",
        "rozsirujici": ""
      },
      "napoveda": {
        "aktivity": [
          "lupa",
          "text"
        ],
        "text": "Do boxu pro text zapisujete odpověď na otázku, nebo jiný komentář (dle zadání)."
      },
      "uzivatelskyText": {
        "otazky": [
          {
            "id": "text-1",
            "zadani": "",
            "instrukce": "Myslím si, že…",
            "minDelka": 10,
            "maxDelka": 400
          }
        ]
      }
    }
  ]
}