{
  "cviceni": {
    "version": {
      "global": "<%= version %>",
      "content": 1
    },
    "katalog": [],
    "language": "cs",
    "slug": "komu-psal-fucik",
    "nazev": "Komu psal Fučík?",
    "autor": [
      "Čeněk Pýcha"
    ],
    "klicovaSlova": {
      "rvp": [
        "druhá světová válka"
      ],
      "koncept": [
        "umění"
      ],
      "b4": [],
      "historylab": []
    },
    "casovaOsa": {
      "roky": [
        1943
      ],
      "epochy": [
        {
          "refId": "czech",
          "obdobi": [
            "druhá republika a tzv. protektorát"
          ]
        },
        {
          "refId": "world",
          "obdobi": []
        }
      ]
    },
    "anotace": {
      "ucitel": "",
      "verejna": ""
    },
    "trvani": 30,
    "obtiznost": "",
    "funkce": [
      "lupa",
      "cteni",
      "text",
      "analyticka-tabulka",
      "text-editor"
    ],
    "pdf": {
      "doporucenyPostup": "komu-psal-fucik.pdf"
    },
    "uvodniObrazek": "komu-psal-fucik/pic-00-1024h.jpg",
    "id": 13,
    "color": {
      "rgb": {
        "r": 213,
        "g": 202,
        "b": 154
      },
      "hsv": {
        "h": 49,
        "s": 27.7,
        "v": 83.53
      }
    }
  },
  "slajd": [
    {
      "class": "half-slide-previous",
      "zadani": {
        "hlavni": " Přečtěte si text.",
        "rozsirujici": ""
      },
      "napoveda": {
        "aktivity": [
          "lupa",
          "cteni"
        ],
        "text": "Při kliknutí levým tlačítkem do obrazu lupa přiblíží část obrazu ve výřezu."
      },
      "textovyEditor": {
        "galerie": [
          {
            "soubor": "komu-psal-fucik/pic-00-1024h.jpg"
          },
          {
            "soubor": "komu-psal-fucik/pic-01-1024h.jpg"
          },
          {
            "soubor": "komu-psal-fucik/pic-02-1024h.jpg"
          },
          {
            "soubor": "komu-psal-fucik/pic-03-1024h.jpg"
          }
        ],
        "texty": [
          {
            "id": 0,
            "text": "text-00",
            "funkce": "cteni"
          }
        ]
      },
      "popisky": [
        "Zdroj: Julius Fučík: Reportáž, psaná na oprátce. 1 vyd. faksimile rukopisu, Praha: Ottovo nakladatelství, 2008."
      ]
    },
    {
      "class": [
        "half-slide-active"
      ],
      "zadani": {
        "hlavni": "Odeberte nevhodná klíčová slova.",
        "rozsirujici": "Nechte označená jen ta klíčová slova, která podle vás správně vystihují žánr textu."
      },
      "napoveda": {
        "aktivity": [
          "tagy"
        ],
        "text": "Nyní jsou vybrána všechna klíčová slova, kliknutím můžete klíčové slovo odebrat. Pokud po odebrání kliknete na klíčové slovo, znovu ho přidáte."
      },
      "klicovaSlova": {
        "klicovaSlova": [
          {
            "id": "klicova-slova-1",
            "funkce": "selekce-",
            "tagy": [
              {
                "id": 1,
                "text": "milostný dopis"
              },
              {
                "id": 2,
                "text": "reportáž"
              },
              {
                "id": 3,
                "text": "politický komentář"
              },
              {
                "id": 4,
                "text": "esej"
              },
              {
                "id": 5,
                "text": "román"
              },
              {
                "id": 6,
                "text": "deník"
              }
            ]
          }
        ]
      }
    },
    {
      "zadani": {
        "hlavni": "Označte přídavná jména nebo pasáže textu, které charakterizují Gustu jako partnerku nebo Gustu jako političku.",
        "rozsirujici": ""
      },
      "napoveda": {
        "aktivity": [
          "text-editor"
        ],
        "text": "Levým tlačítkem myši zabarvíte zvolené slovo nebo slovní spojení. Otevře se vám nabídka, v níž zvolíte označovanou kategorii. Křížkem lze označení smazat, kliknutím levým tlačítkem na již označené slovo lze přidat textový komentář."
      },
      "textovyEditor": {
        "galerie": [
          {
            "soubor": "komu-psal-fucik/pic-00-1024h.jpg"
          },
          {
            "soubor": "komu-psal-fucik/pic-01-1024h.jpg"
          },
          {
            "soubor": "komu-psal-fucik/pic-02-1024h.jpg"
          },
          {
            "soubor": "komu-psal-fucik/pic-03-1024h.jpg"
          }
        ],
        "texty": [
          {
            "id": 1,
            "text": "text-00",
            "funkce": "zvyraznovani",
            "menu": [
              {
                "title": "Gusta jako partnerka",
                "commandName": "gusta-jako-partnerka",
                "color": "red"
              },
              {
                "title": "Gusta jako politička",
                "commandName": "gusta-jako-politicka",
                "color": "orange"
              }
            ]
          }
        ]
      },
      "popisky": [
        "Zdroj: Julius Fučík: Reportáž, psaná na oprátce. 1 vyd. faksimile rukopisu, Praha: Ottovo nakladatelství, 2008."
      ]
    },
    {
      "zadani": {
        "hlavni": "Vyznačte pasáže, ve kterých je charakterizován vztah Gusty a Julia.",
        "rozsirujici": ""
      },
      "napoveda": {
        "aktivity": [
          "text-editor"
        ],
        "text": "Levým tlačítkem myši zabarvíte zvolené slovo nebo slovní spojení. Otevře se vám nabídka, v níž zvolíte označovanou kategorii. Křížkem lze označení smazat, kliknutím levým tlačítkem na již označené slovo lze přidat textový komentář."
      },
      "textovyEditor": {
        "galerie": [
          {
            "soubor": "komu-psal-fucik/pic-00-1024h.jpg"
          },
          {
            "soubor": "komu-psal-fucik/pic-01-1024h.jpg"
          },
          {
            "soubor": "komu-psal-fucik/pic-02-1024h.jpg"
          },
          {
            "soubor": "komu-psal-fucik/pic-03-1024h.jpg"
          }
        ],
        "texty": [
          {
            "id": 2,
            "text": "text-00",
            "funkce": "zvyraznovani",
            "menu": [
              {
                "title": "vztah Gusty a Julia",
                "commandName": "vztah-gusty-julia",
                "color": "blue"
              }
            ]
          }
        ]
      },
      "popisky": [
        "Zdroj: Julius Fučík: Reportáž, psaná na oprátce. 1 vyd. faksimile rukopisu, Praha: Ottovo nakladatelství, 2008."
      ]
    },
    {
      "class": "half-slide-previous",
      "zadani": {
        "hlavni": "Zamyslete se znovu nad žánrem.",
        "rozsirujici": "Nechte označené jen <b>jedno</b> klíčové slovo, které nejlépe vystihuje žánr textu, ostatní odznačte."
      },
      "napoveda": {
        "aktivity": [
          "tagy"
        ],
        "text": "Nyní jsou vybrána ta klíčová slova, které jste vybrali v předchozích krocích. Kliknutím můžete klíčové slovo odebrat. Pokud po odebrání kliknete na klíčové slovo, znovu ho přidáte."
      },
      "klicovaSlova": {
        "novaTabulka": {
          "tabulky": [
            {
              "id": "nova-tabulka-1",
              "dataFrom": [
                "1",
                "2"
              ],
              "columns": [
                {
                  "id": "uryvky",
                  "name": "",
                  "type": "",
                  "bg-color": "",
                  "values": []
                }
              ],
              "rows": [
                {
                  "id": "gusta-jako-partnerka",
                  "name": "Gusta jako partnerka",
                  "type": {
                    "name": "dup-text",
                    "type": "tag"
                  },
                  "bg-color": "",
                  "values": []
                },
                {
                  "id": "gusta-jako-politicka",
                  "name": "Gusta jako politička",
                  "type": {
                    "name": "dup-text",
                    "type": "tag"
                  },
                  "bg-color": "",
                  "values": []
                },
                {
                  "id": "vztah-gusty-julia",
                  "name": "Vztah Gusty a Julia",
                  "type": {
                    "name": "dup-text",
                    "type": "tag"
                  },
                  "bg-color": "",
                  "values": []
                }
              ]
            }
          ]
        },
        "klicovaSlova": [
          {
            "id": "klicova-slova-2",
            "funkce": "selekce-",
            "tagy": [],
            "inherit": {
              "onInit": true,
              "from": [
                "klicova-slova-1"
              ]
            }
          }
        ]
      }
    },
    {
      "class": [
        "half-slide-active"
      ],
      "zadani": {
        "hlavni": "Zamyslete se nad tím, komu Fučík psal.",
        "rozsirujici": "Využijte vaše vymezení žánru."
      },
      "napoveda": {
        "aktivity": [
          "text"
        ],
        "text": "Do boxu pro text zapisujete odpověď na otázku, nebo jiný komentář (dle zadání)."
      },
      "uzivatelskyText": {
        "otazky": [
          {
            "id": "text-1",
            "zadani": "",
            "instrukce": "Myslím si, že…",
            "minDelka": 0,
            "maxDelka": 400
          }
        ]
      }
    }
  ]
}